{
  "photos": {
    "page": 1,
    "pages": 775,
    "perpage": 20,
    "total": "15484",
    "photo": [
      {
        "id": "51088408712",
        "owner": "82909129@N08",
        "secret": "96daff87fb",
        "server": "65535",
        "farm": 66,
        "title": "1232058833",
        "ispublic": 1,
        "isfriend": 0,
        "isfamily": 0
      },
      {
        "id": "51014171915",
        "owner": "98984205@N04",
        "secret": "83378bbb21",
        "server": "65535",
        "farm": 66,
        "title": "Nemanja Djurisic-1-2",
        "ispublic": 1,
        "isfriend": 0,
        "isfamily": 0
      },
      {
        "id": "50998433394",
        "owner": "98984205@N04",
        "secret": "f6a146e4e4",
        "server": "65535",
        "farm": 66,
        "title": "Nemanja Djurisic-14",
        "ispublic": 1,
        "isfriend": 0,
        "isfamily": 0
      },
      {
        "id": "51083449697",
        "owner": "98984205@N04",
        "secret": "a16a056775",
        "server": "65535",
        "farm": 66,
        "title": "Nemanja Djurisic-7",
        "ispublic": 1,
        "isfriend": 0,
        "isfamily": 0
      },
      {
        "id": "51083449317",
        "owner": "98984205@N04",
        "secret": "652a6ea7e9",
        "server": "65535",
        "farm": 66,
        "title": "Nemanja Djurisic-9",
        "ispublic": 1,
        "isfriend": 0,
        "isfamily": 0
      },
      {
        "id": "50998432419",
        "owner": "98984205@N04",
        "secret": "cdd40458b3",
        "server": "65535",
        "farm": 66,
        "title": "Nemanja Djurisic-4",
        "ispublic": 1,
        "isfriend": 0,
        "isfamily": 0
      },
      {
        "id": "51083448882",
        "owner": "98984205@N04",
        "secret": "a46a5c71c2",
        "server": "65535",
        "farm": 66,
        "title": "Nemanja Djurisic-15",
        "ispublic": 1,
        "isfriend": 0,
        "isfamily": 0
      },
      {
        "id": "51083353326",
        "owner": "98984205@N04",
        "secret": "c70f628d21",
        "server": "65535",
        "farm": 66,
        "title": "Nemanja Djurisic-6",
        "ispublic": 1,
        "isfriend": 0,
        "isfamily": 0
      },
      {
        "id": "51083353276",
        "owner": "98984205@N04",
        "secret": "f7a5b97584",
        "server": "65535",
        "farm": 66,
        "title": "Nemanja Djurisic-8",
        "ispublic": 1,
        "isfriend": 0,
        "isfamily": 0
      },
      {
        "id": "51083448637",
        "owner": "98984205@N04",
        "secret": "f72a5dfa6e",
        "server": "65535",
        "farm": 66,
        "title": "Nemanja Djurisic-12",
        "ispublic": 1,
        "isfriend": 0,
        "isfamily": 0
      },
      {
        "id": "51083448212",
        "owner": "98984205@N04",
        "secret": "611b5d3a65",
        "server": "65535",
        "farm": 66,
        "title": "Nemanja Djurisic-2-2",
        "ispublic": 1,
        "isfriend": 0,
        "isfamily": 0
      },
      {
        "id": "51014169335",
        "owner": "98984205@N04",
        "secret": "621ed1e01a",
        "server": "65535",
        "farm": 66,
        "title": "Nemanja Djurisic-13",
        "ispublic": 1,
        "isfriend": 0,
        "isfamily": 0
      },
      {
        "id": "51083447902",
        "owner": "98984205@N04",
        "secret": "7905fd0df5",
        "server": "65535",
        "farm": 66,
        "title": "Nemanja Djurisic-10",
        "ispublic": 1,
        "isfriend": 0,
        "isfamily": 0
      },
      {
        "id": "51014169060",
        "owner": "98984205@N04",
        "secret": "5d73b66422",
        "server": "65535",
        "farm": 66,
        "title": "Nemanja Djurisic-3-2",
        "ispublic": 1,
        "isfriend": 0,
        "isfamily": 0
      },
      {
        "id": "51083447597",
        "owner": "98984205@N04",
        "secret": "66f3e2948a",
        "server": "65535",
        "farm": 66,
        "title": "Nemanja Djurisic-3",
        "ispublic": 1,
        "isfriend": 0,
        "isfamily": 0
      },
      {
        "id": "51014168585",
        "owner": "98984205@N04",
        "secret": "bc21d13213",
        "server": "65535",
        "farm": 66,
        "title": "Nemanja Djurisic-2",
        "ispublic": 1,
        "isfriend": 0,
        "isfamily": 0
      },
      {
        "id": "51083446952",
        "owner": "98984205@N04",
        "secret": "ea36dc1191",
        "server": "65535",
        "farm": 66,
        "title": "Nemanja Djurisic-5",
        "ispublic": 1,
        "isfriend": 0,
        "isfamily": 0
      },
      {
        "id": "51083351351",
        "owner": "98984205@N04",
        "secret": "8f9eaf6cc2",
        "server": "65535",
        "farm": 66,
        "title": "Nemanja Djurisic-11",
        "ispublic": 1,
        "isfriend": 0,
        "isfamily": 0
      },
      {
        "id": "51083351331",
        "owner": "98984205@N04",
        "secret": "4d999360a5",
        "server": "65535",
        "farm": 66,
        "title": "Nemanja Djurisic-1",
        "ispublic": 1,
        "isfriend": 0,
        "isfamily": 0
      },
      {
        "id": "51082918987",
        "owner": "7234866@N02",
        "secret": "b0a7f8417a",
        "server": "65535",
        "farm": 66,
        "title": "Nemanja Djurisic-14",
        "ispublic": 1,
        "isfriend": 0,
        "isfamily": 0
      }
    ]
  },
  "stat": "ok"
}